HASH, TEXT, FILENAME, VOICE, LANGUAGE, GENDER, VOICE ID, NOTES
5038beac33b99e4540580e90ba33cea4,"Find the GCF of 8 and 36 using lists of factors.",18.mp3,Mark,e,m,1,"Source: Learnosity Activity-19NA06_0104SA_01"
dc794fe3a9816b80e1810dd1ab6c553f,"Find the GCF of 18 and 72 using lists of factors.",19.mp3,Mark,e,m,1,"Source: Learnosity Activity-19NA06_0104SA_02"
a2d33ca314d8592a1c6a286ac4e5ea51,"Find the GCF of 14, 28, and 49 using lists of factors.",20.mp3,Mark,e,m,1,"Source: Learnosity Activity-19NA06_0104SA_03"
