[
 {
    "page no.":52,
    "term":"factor pair",
    "type":"0",
    "definition":"Two whole numbers other than zero that are multiplied together to get a product"
  },
  {
    "page no.":52,
    "term":"prime factorization",
    "type":"0",
    "definition":"A composite number written as the product of its prime factors"
  },
  {
    "page no.":52,
    "term":"factor tree",
    "type":"0",
    "definition":"A diagram that shows the prime factorization of a number"
  }
]